{
  "name": "carcheky/line_awesome",
  "description": "alternative to Fawesome font library for drupal",
  "type": "drupal-module",
  "license": "GPL-2.0-or-later",
  "minimum-stability": "dev",
  "repositories": {
    "line_awesome": {
      "type": "package",
      "package": {
        "name": "icons8/line_awesome",
        "version": "1.3.0",
        "type": "drupal-library",
        "dist": {
          "url": "https://github.com/Erwane/lineawesome/archive/1.3.0.zip",
          "type": "zip"
        }
      }
    }
  },
  "require": {
    "icons8/line_awesome": "^1.3"
  }
}